…
Exploring the dataset from the National Hockey League by reading the
JSON file pulled from the [NHL API](https://records.nhl.com/site/api)

This below function contacts the NHL records ‘Franchise’ API and returns
well-formated, parsed data. It calls the API by useing the `fromJSON`
function under the `jsonlite` package.

“/franchise” call: Returns Id, First Season ID, Last Season ID and Every
team in the history of the NHL

``` r
nhl("/franchise")
```

    ## # A tibble: 38 x 6
    ##       ID `First Season` `Last Season` `Team ID` `Team Name` `Team Location`
    ##    <int>          <int>         <int>     <int> <chr>       <chr>          
    ##  1     1       19171918            NA         8 Canadiens   Montréal       
    ##  2     2       19171918      19171918        41 Wanderers   Montreal       
    ##  3     3       19171918      19341935        45 Eagles      St. Louis      
    ##  4     4       19191920      19241925        37 Tigers      Hamilton       
    ##  5     5       19171918            NA        10 Maple Leafs Toronto        
    ##  6     6       19241925            NA         6 Bruins      Boston         
    ##  7     7       19241925      19371938        43 Maroons     Montreal       
    ##  8     8       19251926      19411942        51 Americans   Brooklyn       
    ##  9     9       19251926      19301931        39 Quakers     Philadelphia   
    ## 10    10       19261927            NA         3 Rangers     New York       
    ## # ... with 28 more rows

“/franchise-team-totals” call: Returns Total stats for every franchise

``` r
nhl("/franchise-team-totals")
```

    ## # A tibble: 104 x 30
    ##       ID `Active Franchi~ `First Season` `Franchise ID` `Game Type`
    ##    <int>            <int>          <int>          <int>       <int>
    ##  1     1                1       19821983             23           2
    ##  2     2                1       19821983             23           3
    ##  3     3                1       19721973             22           2
    ##  4     4                1       19721973             22           3
    ##  5     5                1       19261927             10           2
    ##  6     6                1       19261927             10           3
    ##  7     7                1       19671968             16           3
    ##  8     8                1       19671968             16           2
    ##  9     9                1       19671968             17           2
    ## 10    10                1       19671968             17           3
    ## # ... with 94 more rows, and 25 more variables: `Games Played` <int>, `Goals
    ## #   Against` <int>, `Goals For` <int>, `Home Losses` <int>, `Home Overtime
    ## #   Losses` <int>, `Home Ties` <int>, `Home Wins` <int>, `Last Season` <int>,
    ## #   Losses <int>, `Overtime Losses` <int>, `Penalty Minutes` <int>, `Points
    ## #   Percent per Game` <dbl>, Points <int>, `Road Losses` <int>, `Road Overtime
    ## #   Losses` <int>, `Road Ties` <int>, `Road Wins` <int>, `Shootout
    ## #   Losses` <int>, `Shootout Wins` <int>, Shutouts <int>, `Team ID` <int>,
    ## #   `Team Name` <chr>, Ties <int>, `Tri-Code` <chr>, Wins <int>
…
“/franchise-skater-records?cayenneExp=franchiseId=ID” call: Skater
records for the specified franchise.

``` r
nhl("/franchise-skater-records?cayenneExp=franchiseId=ID", 36)
```

    ## # A tibble: 264 x 30
    ##       ID `Active Player` Assists `First Name` `Franchise ID` `Franchise Name`
    ##    <int> <lgl>             <int> <chr>                 <int> <chr>           
    ##  1 16944 FALSE                92 Rostislav                36 Columbus Blue J~
    ##  2 16981 FALSE               258 Rick                     36 Columbus Blue J~
    ##  3 17043 FALSE                35 Jared                    36 Columbus Blue J~
    ##  4 17088 TRUE                114 Artemi                   36 Columbus Blue J~
    ##  5 17119 FALSE                18 Jody                     36 Columbus Blue J~
    ##  6 17143 TRUE                114 Ryan                     36 Columbus Blue J~
    ##  7 17154 FALSE               204 David                    36 Columbus Blue J~
    ##  8 17168 TRUE                150 Seth                     36 Columbus Blue J~
    ##  9 18709 FALSE                68 Andrew                   36 Columbus Blue J~
    ## 10 19206 FALSE                15 Kevin                    36 Columbus Blue J~
    ## # ... with 254 more rows, and 24 more variables: `Game Type` <int>, `Games
    ## #   Played` <int>, Goals <int>, `Last Name` <chr>, `Most Assists Game
    ## #   Dates` <chr>, ` Most Assists One Game` <int>, `Most Assists One
    ## #   Season` <int>, `Most Assists Season IDs` <chr>, `Most Goals Game
    ## #   Dates` <chr>, `Most Goals One Game` <int>, `Most Goals One Season` <int>,
    ## #   `Most Goals Season IDs` <chr>, `Most Penalty Minutes One Season` <int>,
    ## #   `Most Penalty Minutes Season IDs` <chr>, `Most Points Game Dates` <chr>,
    ## #   `Most Points One Game` <int>, `Most Points One Season` <int>, `Most Points
    ## #   Season IDs` <chr>, `Penalty Minutes` <int>, `Player ID` <int>,
…
div_conf$Conference <- as.factor(div_conf$Conference)
div_conf$Division <- as.factor(div_conf$Division)

div_conf
```

    ## # A tibble: 31 x 3
    ##    teamName            Division     Conference
    ##    <chr>               <fct>        <fct>     
    ##  1 Montréal Canadiens  Atlantic     Eastern   
    ##  2 Toronto Maple Leafs Atlantic     Eastern   
    ##  3 Boston Bruins       Atlantic     Eastern   
    ##  4 New York Rangers    Metropolitan Eastern   
    ##  5 Chicago Blackhawks  Central      Western   
    ##  6 Detroit Red Wings   Atlantic     Eastern   
    ##  7 Los Angeles Kings   Pacific      Western   
    ##  8 Dallas Stars        Central      Western   
    ##  9 Philadelphia Flyers Metropolitan Eastern   
    ## 10 Pittsburgh Penguins Metropolitan Eastern   
    ## # ... with 21 more rows
…
